A5 - DD trends
…
Simulation

sim_list <- map(1:300, dd_iter, n_ind = 10)

sim_list %>% head(2)

## [[1]]
## # A tibble: 110 x 9
##     iter    id  time  post treated treat group     y     z
##    <int> <int> <int> <dbl>   <int> <dbl> <dbl> <dbl> <dbl>
##  1     1     1     1     0       0     0     4 2.32   1.53
##  2     1     2     1     0       1     0     2 3.77   3.82
##  3     1     3     1     0       0     0     4 0.825  2.92
##  4     1     4     1     0       1     0     2 5.32   5.44
##  5     1     5     1     0       0     0     4 3.11   1.94
##  6     1     6     1     0       1     0     2 5.04   4.54
##  7     1     7     1     0       0     0     4 1.43   2.60
##  8     1     8     1     0       1     0     2 4.17   3.12
##  9     1     9     1     0       0     0     4 2.65   2.15
## 10     1    10     1     0       1     0     2 3.20   2.74
## #  with 100 more rows
## 
## [[2]]
## # A tibble: 110 x 9
##     iter    id  time  post treated treat group      y     z
##    <int> <int> <int> <dbl>   <int> <dbl> <dbl>  <dbl> <dbl>
##  1     2     1     1     0       0     0     4 0.0286  2.10
##  2     2     2     1     0       1     0     2 3.55    3.63
##  3     2     3     1     0       0     0     4 1.30    2.29
##  4     2     4     1     0       1     0     2 3.83    4.17
##  5     2     5     1     0       0     0     4 2.48    1.65
##  6     2     6     1     0       1     0     2 4.81    4.29
##  7     2     7     1     0       0     0     4 2.71    1.09
##  8     2     8     1     0       1     0     2 5.15    4.66
##  9     2     9     1     0       0     0     4 3.15    3.58
## 10     2    10     1     0       1     0     2 3.50    5.06
## #  with 100 more rows
…
